…
Two helpful additional functions are `simulate_logit` and `toDataFrame`, which allows one to easily simulate data from a logit demand system with endogenous prices (and instruments for those prices) to test the `NPDemand` functions. Usage shown in `/examples`.

## Example of constructing a problem and estimating price elasticities
As described above, begin with a DataFrame which takes the following form (with three products in this example):
```jl
julia> df
2000×16 DataFrame
  Row │ shares0    prices0   x0        share_iv0  price_iv0  shares1   prices1    x1        share_iv1  price_iv1  shares2    prices2   x2 ⋯
      │ Float64    Float64   Float64   Float64    Float64    Float64   Float64    Float64   Float64    Float64    Float64    Float64   Fl ⋯
──────┼────────────────────────────────────────────────────────────────────────────────────────────────────────────────────────────────────
    1 │ 0.328229   0.66807   0.416167   0.416167  0.0717971  0.14538    1.89975   0.903872   0.903872  0.7109     0.236292   0.458123  0. ⋯
    2 │ 0.0994119  1.50148   0.367425   0.367425  0.899897   0.25597    1.48679   0.8222     0.8222    0.636302   0.208002   0.834816  0.
    3 │ 0.131559   1.60465   0.323835   0.323835  0.596641   0.320453   1.35984   0.84993    0.84993   0.429504   0.175882   0.87676   0.
  ⋮   │     ⋮         ⋮         ⋮          ⋮          ⋮         ⋮          ⋮         ⋮          ⋮          ⋮          ⋮         ⋮         ⋱
 1998 │ 0.252616   0.315564  0.456881   0.456881  0.319923   0.33775    0.65299   0.493729   0.493729  0.212751   0.0719814  1.96853   0.
 1999 │ 0.193392   1.51716   0.928404   0.928404  0.664692   0.428216  -0.120323  0.501273   0.501273  0.0640289  0.0655636  1.52594   0. ⋯
 2000 │ 0.373363   0.476147  0.850132   0.850132  0.398496   0.177178   1.27511   0.374716   0.374716  0.533122   0.0835981  1.69474   0.
                                                                                                            4 columns and 1994 rows omitted
```
…
